<?xml version="1.0" encoding="utf-8"?>
<!-- Generator: Adobe Illustrator 17.0.0, SVG Export Plug-In . SVG Version: 6.00 Build 0)  -->
<!DOCTYPE svg PUBLIC "-//W3C//DTD SVG 1.1//EN" "http://www.w3.org/Graphics/SVG/1.1/DTD/svg11.dtd">
<svg version="1.1" id="Layer_1" xmlns:sketch="http://www.bohemiancoding.com/sketch/ns"
	 xmlns="http://www.w3.org/2000/svg" xmlns:xlink="http://www.w3.org/1999/xlink" x="0px" y="0px" width="25px" height="25px"
	 viewBox="0 0 25 25" enable-background="new 0 0 25 25" xml:space="preserve">
<title>dots</title>
<desc>Created with Sketch.</desc>
<g id="Page-1" sketch:type="MSPage">
	<g id="Artboard-1" transform="translate(-140.000000, -154.000000)" sketch:type="MSArtboardGroup">
		<g id="dots" transform="translate(140.000000, 154.000000)" sketch:type="MSLayerGroup">
			<g id="dot" sketch:type="MSShapeGroup">
				<g>
					<circle fill="#75777D" cx="2.5" cy="2.5" r="2.5"/>
				</g>
			</g>
			<g id="dot_1_" transform="translate(0.000000, 20.000000)" sketch:type="MSShapeGroup">
				<g>
					<circle fill="#75777D" cx="2.5" cy="2.5" r="2.5"/>
				</g>
			</g>
			<g id="dot_2_" transform="translate(0.000000, 10.000000)" sketch:type="MSShapeGroup">
				<g>
					<circle fill="#75777D" cx="2.5" cy="2.5" r="2.5"/>
				</g>
			</g>
			<g id="dot_3_" transform="translate(10.000000, 0.000000)" sketch:type="MSShapeGroup">
				<g>
					<circle fill="#75777D" cx="2.5" cy="2.5" r="2.5"/>
				</g>
			</g>
			<g id="dot_4_" transform="translate(10.000000, 20.000000)" sketch:type="MSShapeGroup">
				<g>
					<circle fill="#75777D" cx="2.5" cy="2.5" r="2.5"/>
				</g>
			</g>
			<g id="dot_5_" transform="translate(20.000000, 0.000000)" sketch:type="MSShapeGroup">
				<g>
					<circle fill="#75777D" cx="2.5" cy="2.5" r="2.5"/>
				</g>
			</g>
			<g id="dot_6_" transform="translate(20.000000, 20.000000)" sketch:type="MSShapeGroup">
				<g>
					<circle fill="#75777D" cx="2.5" cy="2.5" r="2.5"/>
				</g>
			</g>
			<g id="dot_7_" transform="translate(20.000000, 10.000000)" sketch:type="MSShapeGroup">
				<g>
					<circle fill="#75777D" cx="2.5" cy="2.5" r="2.5"/>
				</g>
			</g>
		</g>
	</g>
</g>
</svg>
